[
  {
    "action": "get_all",
    "response": {
      "page": 1,
      "per_page": 6,
      "total": 12,
      "total_pages": 2,
      "data": [
        {
          "id": 1,
          "email": "george.bluth@reqres.in",
          "first_name": "George",
          "last_name": "Bluth",
          "avatar": "https://reqres.in/img/faces/1-image.jpg"
        },
        {
          "id": 2,
          "email": "janet.weaver@reqres.in",
          "first_name": "Janet",
          "last_name": "Weaver",
          "avatar": "https://reqres.in/img/faces/2-image.jpg"
        },
        {
          "id": 3,
          "email": "emma.wong@reqres.in",
          "first_name": "Emma",
          "last_name": "Wong",
          "avatar": "https://reqres.in/img/faces/3-image.jpg"
        },
        {
          "id": 4,
          "email": "eve.holt@reqres.in",
          "first_name": "Eve",
          "last_name": "Holt",
          "avatar": "https://reqres.in/img/faces/4-image.jpg"
        },
        {
          "id": 5,
          "email": "charles.morris@reqres.in",
          "first_name": "Charles",
          "last_name": "Morris",
          "avatar": "https://reqres.in/img/faces/5-image.jpg"
        },
        {
          "id": 6,
          "email": "tracey.ramos@reqres.in",
          "first_name": "Tracey",
          "last_name": "Ramos",
          "avatar": "https://reqres.in/img/faces/6-image.jpg"
        }
      ],
      "support": {
        "url": "https://reqres.in/#support-heading",
        "text": "To keep ReqRes free, contributions towards server costs are appreciated!"
      }
    }
  },
  {
    "action": "create",
    "response": {
      "name": "c",
      "job": "c",
      "id": "398",
      "createdAt": "2023-08-31T09:34:41.570Z"
    }
  },
  {
    "action": "update",
    "response": {
      "name": "r",
      "job": "r",
      "updatedAt": "2023-08-31T09:35:40.467Z"
    }
  },
  {
    "action": "get",
    "response": {
      "data": {
        "id": 3,
        "email": "emma.wong@reqres.in",
        "first_name": "Emma",
        "last_name": "Wong",
        "avatar": "https://reqres.in/img/faces/3-image.jpg"
      },
      "support": {
        "url": "https://reqres.in/#support-heading",
        "text": "To keep ReqRes free, contributions towards server costs are appreciated!"
      }
    }
  },
  {
    "action": "get",
    "response": {
      "data": {
        "id": 2,
        "email": "janet.weaver@reqres.in",
        "first_name": "Janet",
        "last_name": "Weaver",
        "avatar": "https://reqres.in/img/faces/2-image.jpg"
      },
      "support": {
        "url": "https://reqres.in/#support-heading",
        "text": "To keep ReqRes free, contributions towards server costs are appreciated!"
      }
    }
  },
  {
    "action": "get",
    "response": null
  },
  {
    "action": "get_all",
    "response": {
      "page": 1,
      "per_page": 6,
      "total": 12,
      "total_pages": 2,
      "data": [
        {
          "id": 1,
          "email": "george.bluth@reqres.in",
          "first_name": "George",
          "last_name": "Bluth",
          "avatar": "https://reqres.in/img/faces/1-image.jpg"
        },
        {
          "id": 2,
          "email": "janet.weaver@reqres.in",
          "first_name": "Janet",
          "last_name": "Weaver",
          "avatar": "https://reqres.in/img/faces/2-image.jpg"
        },
        {
          "id": 3,
          "email": "emma.wong@reqres.in",
          "first_name": "Emma",
          "last_name": "Wong",
          "avatar": "https://reqres.in/img/faces/3-image.jpg"
        },
        {
          "id": 4,
          "email": "eve.holt@reqres.in",
          "first_name": "Eve",
          "last_name": "Holt",
          "avatar": "https://reqres.in/img/faces/4-image.jpg"
        },
        {
          "id": 5,
          "email": "charles.morris@reqres.in",
          "first_name": "Charles",
          "last_name": "Morris",
          "avatar": "https://reqres.in/img/faces/5-image.jpg"
        },
        {
          "id": 6,
          "email": "tracey.ramos@reqres.in",
          "first_name": "Tracey",
          "last_name": "Ramos",
          "avatar": "https://reqres.in/img/faces/6-image.jpg"
        }
      ],
      "support": {
        "url": "https://reqres.in/#support-heading",
        "text": "To keep ReqRes free, contributions towards server costs are appreciated!"
      }
    }
  },
  {
    "action": "get",
    "response": {
      "data": {
        "id": 2,
        "email": "janet.weaver@reqres.in",
        "first_name": "Janet",
        "last_name": "Weaver",
        "avatar": "https://reqres.in/img/faces/2-image.jpg"
      },
      "support": {
        "url": "https://reqres.in/#support-heading",
        "text": "To keep ReqRes free, contributions towards server costs are appreciated!"
      }
    }
  },
  {
    "action": "get",
    "response": null
  },
  {
    "action": "create",
    "response": null
  },
  {
    "action": "Delete",
    "response": null
  }
]